^D:\courses backup previous semesters\semester a year 3\Game Physics\exs\TemplateProj3\MassSpringSystem\SimulationsRunner\SimulationsRunner.vcxproj
D:\courses backup previous semesters\semester a year 3\Game Physics\exs\TemplateProj3\MassSpringSystem\Win32\Release\MakeSpriteFont.exe
D:\courses backup previous semesters\semester a year 3\Game Physics\exs\TemplateProj3\MassSpringSystem\Win32\Release\MakeSpriteFont.pdb
^D:\courses backup previous semesters\semester a year 3\Game Physics\exs\TemplateProj3\MassSpringSystem\SimulationsRunner\SimulationsRunner.vcxproj
D:\courses backup previous semesters\semester a year 3\Game Physics\exs\TemplateProj3\MassSpringSystem\Win32\Release\MakeSpriteFont.exe
D:\courses backup previous semesters\semester a year 3\Game Physics\exs\TemplateProj3\MassSpringSystem\Win32\Release\MakeSpriteFont.pdb
^D:\courses backup previous semesters\semester a year 3\Game Physics\exs\TemplateProj3\MassSpringSystem\SimulationsRunner\SimulationsRunner.vcxproj
D:\courses backup previous semesters\semester a year 3\Game Physics\exs\TemplateProj3\MassSpringSystem\Win32\Release\MakeSpriteFont.exe
D:\courses backup previous semesters\semester a year 3\Game Physics\exs\TemplateProj3\MassSpringSystem\Win32\Release\MakeSpriteFont.pdb
